{
  "images" : [
    {
      "idiom" : "universal",
      "scale" : "1x",
      "filename" : "provo-utah-808x480-AV090827cah001.jpg"
    },
    {
      "idiom" : "universal",
      "scale" : "2x"
    },
    {
      "idiom" : "universal",
      "scale" : "3x"
    }
  ],
  "info" : {
    "version" : 1,
    "author" : "xcode"
  }
}