{
  "images" : [
    {
      "idiom" : "universal",
      "scale" : "1x",
      "filename" : "columbus-temple-lds-406110-mobile.jpg"
    },
    {
      "idiom" : "universal",
      "scale" : "2x"
    },
    {
      "idiom" : "universal",
      "scale" : "3x"
    }
  ],
  "info" : {
    "version" : 1,
    "author" : "xcode"
  }
}